{
	"info": {
		"_postman_id": "ef0d2967-74e0-4a54-84e5-65b7f2b9310e",
		"name": "Capstone 2",
		"schema": "https://schema.getpostman.com/json/collection/v2.1.0/collection.json"
	},
	"item": [
		{
			"name": "Register User",
			"request": {
				"method": "POST",
				"header": [],
				"body": {
					"mode": "raw",
					"raw": "{\r\n    \"email\": \"newuser@mail.com\",\r\n    \"password\": \"12345\"\r\n}",
					"options": {
						"raw": {
							"language": "json"
						}
					}
				},
				"url": {
					"raw": "localhost:4000/users/register",
					"host": [
						"localhost"
					],
					"port": "4000",
					"path": [
						"users",
						"register"
					]
				}
			},
			"response": []
		},
		{
			"name": "Login",
			"request": {
				"method": "POST",
				"header": [],
				"body": {
					"mode": "raw",
					"raw": "{\r\n    \"email\": \"normaluser@mail.com\",\r\n    \"password\": \"12345\"\r\n}",
					"options": {
						"raw": {
							"language": "json"
						}
					}
				},
				"url": {
					"raw": "localhost:4000/users/login",
					"host": [
						"localhost"
					],
					"port": "4000",
					"path": [
						"users",
						"login"
					]
				}
			},
			"response": []
		},
		{
			"name": "Set To Admin",
			"request": {
				"auth": {
					"type": "bearer",
					"bearer": [
						{
							"key": "token",
							"value": "eyJhbGciOiJIUzI1NiIsInR5cCI6IkpXVCJ9.eyJpZCI6IjYxODM2MmY3OWQyNDU2MjA0OTQ4ZWEzYiIsImVtYWlsIjoiYWRtaW5AbWFpbC5jb20iLCJpc0FkbWluIjp0cnVlLCJpYXQiOjE2MzYwMDA1MzJ9.H6MnvikblT9MbZ1ZbyR0sPJ4vYopLHwdT5YErzINA8Y",
							"type": "string"
						}
					]
				},
				"method": "PUT",
				"header": [],
				"url": {
					"raw": "localhost:4000/users/6183609f32274df54041f488/setAdmin",
					"host": [
						"localhost"
					],
					"port": "4000",
					"path": [
						"users",
						"6183609f32274df54041f488",
						"setAdmin"
					]
				}
			},
			"response": []
		},
		{
			"name": "Create Product",
			"request": {
				"auth": {
					"type": "bearer",
					"bearer": [
						{
							"key": "token",
							"value": "eyJhbGciOiJIUzI1NiIsInR5cCI6IkpXVCJ9.eyJpZCI6IjYxODM2MmY3OWQyNDU2MjA0OTQ4ZWEzYiIsImVtYWlsIjoiYWRtaW5AbWFpbC5jb20iLCJpc0FkbWluIjp0cnVlLCJpYXQiOjE2MzYwMDA1MzJ9.H6MnvikblT9MbZ1ZbyR0sPJ4vYopLHwdT5YErzINA8Y",
							"type": "string"
						}
					]
				},
				"method": "POST",
				"header": [],
				"body": {
					"mode": "raw",
					"raw": "{\r\n    \"name\": \"Product-2\",\r\n    \"description\": \"Second product\",\r\n    \"price\": 1000\r\n}",
					"options": {
						"raw": {
							"language": "json"
						}
					}
				},
				"url": {
					"raw": "localhost:4000/products/create",
					"host": [
						"localhost"
					],
					"port": "4000",
					"path": [
						"products",
						"create"
					]
				}
			},
			"response": []
		},
		{
			"name": "Get All Active Product",
			"request": {
				"method": "GET",
				"header": [],
				"url": {
					"raw": "localhost:4000/products/allActive",
					"host": [
						"localhost"
					],
					"port": "4000",
					"path": [
						"products",
						"allActive"
					]
				}
			},
			"response": []
		},
		{
			"name": "Get One Product",
			"request": {
				"method": "GET",
				"header": [],
				"url": {
					"raw": "localhost:4000/products/618367eda32cff2fdef143a8",
					"host": [
						"localhost"
					],
					"port": "4000",
					"path": [
						"products",
						"618367eda32cff2fdef143a8"
					]
				}
			},
			"response": []
		},
		{
			"name": "Update One Product",
			"request": {
				"auth": {
					"type": "bearer",
					"bearer": [
						{
							"key": "token",
							"value": "eyJhbGciOiJIUzI1NiIsInR5cCI6IkpXVCJ9.eyJpZCI6IjYxODM2MmY3OWQyNDU2MjA0OTQ4ZWEzYiIsImVtYWlsIjoiYWRtaW5AbWFpbC5jb20iLCJpc0FkbWluIjp0cnVlLCJpYXQiOjE2MzYwMDA1MzJ9.H6MnvikblT9MbZ1ZbyR0sPJ4vYopLHwdT5YErzINA8Y",
							"type": "string"
						}
					]
				},
				"method": "PUT",
				"header": [],
				"body": {
					"mode": "raw",
					"raw": "{\r\n    \"name\": \"Product Update-1\"\r\n}",
					"options": {
						"raw": {
							"language": "json"
						}
					}
				},
				"url": {
					"raw": "localhost:4000/products/update/618367eda32cff2fdef143a8",
					"host": [
						"localhost"
					],
					"port": "4000",
					"path": [
						"products",
						"update",
						"618367eda32cff2fdef143a8"
					]
				}
			},
			"response": []
		},
		{
			"name": "Archive Product",
			"request": {
				"auth": {
					"type": "bearer",
					"bearer": [
						{
							"key": "token",
							"value": "eyJhbGciOiJIUzI1NiIsInR5cCI6IkpXVCJ9.eyJpZCI6IjYxODM2MmY3OWQyNDU2MjA0OTQ4ZWEzYiIsImVtYWlsIjoiYWRtaW5AbWFpbC5jb20iLCJpc0FkbWluIjp0cnVlLCJpYXQiOjE2MzYwMDA1MzJ9.H6MnvikblT9MbZ1ZbyR0sPJ4vYopLHwdT5YErzINA8Y",
							"type": "string"
						}
					]
				},
				"method": "PUT",
				"header": [],
				"url": {
					"raw": "localhost:4000/products/archive/618367eda32cff2fdef143a8",
					"host": [
						"localhost"
					],
					"port": "4000",
					"path": [
						"products",
						"archive",
						"618367eda32cff2fdef143a8"
					]
				}
			},
			"response": []
		},
		{
			"name": "User Checkout (Create Order)",
			"request": {
				"auth": {
					"type": "bearer",
					"bearer": [
						{
							"key": "token",
							"value": "eyJhbGciOiJIUzI1NiIsInR5cCI6IkpXVCJ9.eyJpZCI6IjYxODM4Mzg0MTg3YTUyODNlYmZiMzlmNiIsImVtYWlsIjoibmV3dXNlckBtYWlsLmNvbSIsImlzQWRtaW4iOmZhbHNlLCJpYXQiOjE2MzYwMDg4NDZ9.gWgnQm4vWO9O-wNZMRiardB8YvOnNT6X2Pjjm3FSOmo",
							"type": "string"
						}
					]
				},
				"method": "POST",
				"header": [],
				"body": {
					"mode": "raw",
					"raw": "{\r\n    \"totalAmount\": 100,\r\n    \"productName\": \"Product-2\"\r\n}",
					"options": {
						"raw": {
							"language": "json"
						}
					}
				},
				"url": {
					"raw": "localhost:4000/orders/checkout",
					"host": [
						"localhost"
					],
					"port": "4000",
					"path": [
						"orders",
						"checkout"
					]
				}
			},
			"response": []
		},
		{
			"name": "Get My Orders",
			"request": {
				"auth": {
					"type": "bearer",
					"bearer": [
						{
							"key": "token",
							"value": "eyJhbGciOiJIUzI1NiIsInR5cCI6IkpXVCJ9.eyJpZCI6IjYxODM3ZWZlYjQzMDFkYjcxYjVmMzFlNCIsImVtYWlsIjoibm9ybWFsdXNlckBtYWlsLmNvbSIsImlzQWRtaW4iOmZhbHNlLCJpYXQiOjE2MzYwMDg4OTB9.rxYNqBUrHRWeVp1mrhXd5ocb5UHY-Pne0Iu9CxMwWJo",
							"type": "string"
						}
					]
				},
				"method": "GET",
				"header": [],
				"url": {
					"raw": "localhost:4000/orders/myOrders",
					"host": [
						"localhost"
					],
					"port": "4000",
					"path": [
						"orders",
						"myOrders"
					]
				}
			},
			"response": []
		},
		{
			"name": "Get All Orders",
			"request": {
				"auth": {
					"type": "bearer",
					"bearer": [
						{
							"key": "token",
							"value": "eyJhbGciOiJIUzI1NiIsInR5cCI6IkpXVCJ9.eyJpZCI6IjYxODM2MmY3OWQyNDU2MjA0OTQ4ZWEzYiIsImVtYWlsIjoiYWRtaW5AbWFpbC5jb20iLCJpc0FkbWluIjp0cnVlLCJpYXQiOjE2MzYwMDA1MzJ9.H6MnvikblT9MbZ1ZbyR0sPJ4vYopLHwdT5YErzINA8Y",
							"type": "string"
						}
					]
				},
				"method": "GET",
				"header": [],
				"url": {
					"raw": "localhost:4000/orders/allOrders",
					"host": [
						"localhost"
					],
					"port": "4000",
					"path": [
						"orders",
						"allOrders"
					]
				}
			},
			"response": []
		}
	]
}